{
  "project_info": {
    "project_number": "406952654204",
    "firebase_url": "https://bleetapps.firebaseio.com",
    "project_id": "bleetapps",
    "storage_bucket": "bleetapps.appspot.com"
  },
  "client": [
    {
      "client_info": {
        "mobilesdk_app_id": "1:406952654204:android:72b571f26eae6899d660f9",
        "android_client_info": {
          "package_name": "com.bleet.client.bleetappclient"
        }
      },
      "oauth_client": [
        {
          "client_id": "406952654204-lfjn01lm2hmv8jk50sgvvevcbg4c3h8h.apps.googleusercontent.com",
          "client_type": 1,
          "android_info": {
            "package_name": "com.bleet.client.bleetappclient",
            "certificate_hash": "5b31e02dd6845f5ccc454ec37caf814256045979"
          }
        },
        {
          "client_id": "406952654204-nssvr4i8p4iebr9hkm8ksdoggfjf8ak8.apps.googleusercontent.com",
          "client_type": 3
        }
      ],
      "api_key": [
        {
          "current_key": "AIzaSyCOv1ok2WjPSJ9k_4mM7fbr7Om2iTFCq28"
        }
      ],
      "services": {
        "appinvite_service": {
          "other_platform_oauth_client": [
            {
              "client_id": "406952654204-nssvr4i8p4iebr9hkm8ksdoggfjf8ak8.apps.googleusercontent.com",
              "client_type": 3
            }
          ]
        }
      }
    }
  ],
  "configuration_version": "1"
}